{
	"name": "dicontainer",
	"main": "index.d.ts",
	"author": "Mumba Pty Ltd <www.mumba.cloud>",
	"description": "Type definition for a DiContainer (based on Sandal).",
	"dependencies": {
	},
	"devDependencies": {
	}
}
